<?xml version="1.0" encoding="utf-8"?>
<!-- Generator: Adobe Illustrator 16.0.0, SVG Export Plug-In . SVG Version: 6.00 Build 0)  -->
<!DOCTYPE svg PUBLIC "-//W3C//DTD SVG 1.1//EN" "http://www.w3.org/Graphics/SVG/1.1/DTD/svg11.dtd">
<svg version="1.1" id="Layer_1" xmlns="http://www.w3.org/2000/svg" xmlns:xlink="http://www.w3.org/1999/xlink" x="0px" y="0px"
	 width="62px" height="61.5px" viewBox="0 0 62 61.5" enable-background="new 0 0 62 61.5" xml:space="preserve">
<g>
	<path fill-rule="evenodd" clip-rule="evenodd" fill="#FF7E00" d="M3,30.97C3,15.24,15.76,2.5,31.5,2.5S60,15.24,60,30.97
		c0,15.721-12.76,28.46-28.5,28.46S3,46.69,3,30.97z"/>
	<g>
		<path fill-rule="evenodd" clip-rule="evenodd" fill="#FFFFFF" d="M28.33,15.19c0.32,0.72,0.62,1.41,0.93,2.09
			c0.04,0.07,0.19,0.13,0.28,0.13c1.36,0.01,2.72,0.01,4.08,0c0.09,0,0.24-0.06,0.27-0.14c0.32-0.68,0.62-1.37,0.93-2.08H28.33z
			 M48.12,40.53h-4.08v6.14h4.08V40.53z M15.03,18.57v7.82h7.05v-7.82H15.03z M42.82,46.68c0-2.13,0.01-4.2-0.01-6.27
			c0-0.13-0.13-0.3-0.26-0.37c-2.11-1.31-4.29-1.37-6.53-0.3c-0.24,0.12-0.54,0.19-0.82,0.19c-1.37,0.02-2.75,0-4.12,0.01
			c-0.8,0.01-1.28,0.47-1.27,1.149c0.02,0.67,0.52,1.08,1.29,1.08h4.28c0.13,0,0.26,0,0.39,0.021c0.34,0.05,0.57,0.31,0.53,0.6
			c-0.04,0.31-0.23,0.51-0.57,0.51c-1.98,0-3.96,0-5.94,0c-0.15-0.01-0.31-0.08-0.45-0.14c-1.91-0.83-3.81-1.66-5.73-2.47
			c-0.25-0.11-0.56-0.181-0.83-0.15c-0.44,0.04-0.76,0.41-0.84,0.84c-0.08,0.41,0.13,0.811,0.58,1.061l6.65,3.8
			c0.55,0.31,1.14,0.45,1.77,0.45l11.45-0.01H42.82z M23.31,26.42h0.45H35.4c0.77,0,0.91-0.14,0.91-0.89l0.01-4.6
			c0-0.49,0.18-0.67,0.71-0.69c0.09-0.01,0.18,0,0.27-0.021c0.45-0.05,0.77-0.399,0.78-0.819c0-0.431-0.33-0.79-0.8-0.84
			c-0.14-0.01-0.29-0.01-0.43-0.01c-2.56,0-5.12,0-7.68,0.01c-0.46,0-0.74-0.14-0.91-0.56c-0.2-0.53-0.44-1.04-0.7-1.62
			c-0.67,0.65-1.28,1.271-1.94,1.85c-0.2,0.17-0.52,0.28-0.8,0.31c-0.49,0.05-0.99,0.01-1.51,0.01V26.42z M28.64,41.58
			c0.01-0.03,0.02-0.07,0.01-0.11c-0.24-1.33,0.75-2.75,2.65-2.67c1.24,0.04,2.48,0.01,3.72,0c0.18,0,0.38-0.02,0.53-0.1
			c1.08-0.54,2.22-0.79,3.42-0.84c0.12-0.01,0.311-0.12,0.34-0.21c0.19-0.59,0.45-1.181,0.49-1.78c0.21-3.23-1-5.94-3.44-8.17
			c-0.11-0.1-0.33-0.14-0.5-0.14c-2.85-0.01-5.7-0.02-8.55,0c-0.21,0-0.47,0.1-0.62,0.24c-1.84,1.68-2.96,3.72-3.31,6.13
			C22.89,37.37,24.66,40.44,28.64,41.58z M23.39,39.36c-0.26-0.51-0.55-1-0.76-1.521c-0.85-2.149-0.59-4.27,0.17-6.38
			c0.5-1.36,1.27-2.59,2.28-3.67c0.05-0.06,0.09-0.12,0.19-0.24h-0.48h-10.1c-0.7,0-0.87-0.16-0.87-0.82v-8.52
			c0-0.64,0.16-0.79,0.85-0.79c3.25,0,6.5,0,9.75,0.01c0.29,0,0.49-0.08,0.69-0.28c0.56-0.561,1.14-1.11,1.73-1.65
			c0.18-0.16,0.27-0.3,0.12-0.51c-0.33-0.49,0.05-0.97,0.67-0.96c2.63,0.02,5.26,0.01,7.89,0.01c0.69,0,0.93,0.34,0.67,0.95
			l-0.9,2.05l-0.14,0.38h1.89c1.19,0,2.03,0.65,2.21,1.7c0.16,0.95-0.47,1.83-1.54,2.18l-0.21,0.08v2.1c0,0.72,0.01,1.43,0,2.15
			c-0.01,0.24,0.03,0.521-0.1,0.7c-0.33,0.48-0.03,0.71,0.28,1.03c2.33,2.359,3.49,5.17,3.311,8.42c-0.03,0.74-0.29,1.47-0.45,2.229
			c1.06,0.2,2.06,0.66,2.98,1.29c0.11,0.07,0.28,0.07,0.42,0.07h4.55c0.65,0,0.84,0.17,0.84,0.78v6.89c0,0.6-0.19,0.78-0.8,0.78
			H30.86c-0.8,0-1.54-0.19-2.22-0.58c-2.23-1.271-4.47-2.54-6.69-3.81c-0.92-0.53-1.34-1.35-1.18-2.24
			c0.18-0.94,0.82-1.59,1.81-1.78C22.84,39.36,23.12,39.38,23.39,39.36z"/>
		<path fill-rule="evenodd" clip-rule="evenodd" fill="#FFFFFF" d="M43.53,25.89l-0.71-0.7l-0.74,0.67l0.73,0.689L43.53,25.89z
			 M45.77,25.83c-0.01,0.34-0.18,0.52-0.49,0.59c-1,0.2-1.62,0.78-1.86,1.73c-0.08,0.31-0.27,0.52-0.63,0.52
			c-0.36,0-0.51-0.24-0.58-0.53c-0.22-0.9-0.8-1.46-1.75-1.69c-0.34-0.08-0.59-0.24-0.59-0.61c0.01-0.35,0.27-0.479,0.59-0.56
			c0.92-0.2,1.49-0.76,1.74-1.62l0.05-0.18c0.09-0.27,0.27-0.43,0.58-0.42c0.3,0.01,0.49,0.16,0.56,0.44
			c0.25,0.99,0.86,1.62,1.92,1.82C45.62,25.38,45.74,25.59,45.77,25.83z"/>
		<path fill-rule="evenodd" clip-rule="evenodd" fill="#FFFFFF" d="M43.64,37.3l-1.12-0.359c0.41-1.2,0.38-2.38-0.02-3.61l1.14-0.29
			C44.1,34.46,44.14,35.85,43.64,37.3z"/>
		<path fill-rule="evenodd" clip-rule="evenodd" fill="#FFFFFF" d="M22.15,16.29c-0.06-1.21,1-2.22,2.32-2.23
			c0,0.32,0.01,0.64-0.01,0.96c0,0.05-0.12,0.13-0.2,0.15c-0.5,0.13-0.81,0.42-0.95,0.9c-0.02,0.09-0.15,0.2-0.24,0.21
			C22.77,16.31,22.47,16.29,22.15,16.29z"/>
		<path fill-rule="evenodd" clip-rule="evenodd" fill="#FFFFFF" d="M29.83,35.99v-1.13h1.82c0.16,0,0.32,0,0.48,0
			c0.37-0.021,0.62-0.24,0.63-0.54c0-0.311-0.24-0.561-0.61-0.58c-0.38-0.021-0.76-0.021-1.14-0.01c-0.8,0.02-1.34-0.35-1.65-1.01
			c-0.32-0.64-0.18-1.39,0.39-1.859c0.32-0.271,0.76-0.41,1.23-0.65v-0.95h1.18v1.09h1.16v1.15h-1.45c-0.3,0-0.61-0.01-0.91,0.01
			c-0.36,0.03-0.57,0.26-0.57,0.561c0.01,0.3,0.23,0.52,0.59,0.54c0.31,0.02,0.63,0.01,0.95,0.01c1.17,0,1.92,0.6,2.01,1.6
			c0.08,0.88-0.63,1.62-1.76,1.8v1.08H30.99v-1.11H29.83z"/>
		<path fill-rule="evenodd" clip-rule="evenodd" fill="#FFFFFF" d="M19.78,24.21c0.05-0.02,0.09-0.03,0.13-0.04
			c1.06-0.07,1.16,0.05,0.97,1.1h-1.1V24.21z"/>
		<rect x="45.22" y="44.45" fill-rule="evenodd" clip-rule="evenodd" fill="#FFFFFF" width="1.14" height="1.08"/>
	</g>
</g>
</svg>
