<?xml version="1.0" encoding="utf-8"?>
<!-- Generator: Adobe Illustrator 16.0.0, SVG Export Plug-In . SVG Version: 6.00 Build 0)  -->
<!DOCTYPE svg PUBLIC "-//W3C//DTD SVG 1.1//EN" "http://www.w3.org/Graphics/SVG/1.1/DTD/svg11.dtd">
<svg version="1.1" id="Layer_1" xmlns="http://www.w3.org/2000/svg" xmlns:xlink="http://www.w3.org/1999/xlink" x="0px" y="0px"
	 width="62px" height="61.5px" viewBox="0 0 62 61.5" enable-background="new 0 0 62 61.5" xml:space="preserve">
<g>
	<path fill-rule="evenodd" clip-rule="evenodd" fill="#FF7E00" d="M2.84,31.01c0-15.729,12.76-28.47,28.5-28.47
		s28.5,12.74,28.5,28.47c0,15.721-12.76,28.46-28.5,28.46S2.84,46.73,2.84,31.01z"/>
	<g>
		<path fill-rule="evenodd" clip-rule="evenodd" fill="#FFFFFF" d="M29.59,41.58V40.5H19v1.08H29.59z M29.59,39.32V38.26H19.01
			v1.061H29.59z M24.86,20.76v1.11l-0.28,0.03l0.24,1.71c0.83,0.05,1.64,0.39,2.43,0.96c0-1.47,0-2.86-0.01-4.25
			c-0.01-0.11-0.13-0.22-0.21-0.311c-0.25-0.24-0.5-0.479-0.76-0.7c-0.11-0.1-0.25-0.21-0.39-0.21c-0.97-0.02-1.95,0.01-2.92-0.02
			c-0.44-0.02-0.7,0.1-0.79,0.47l1.44,1.42C23.97,20.58,24.43,20.85,24.86,20.76z M24.14,29.21c0.79,0.01,1.46-0.14,2.06-0.53
			c1.2-0.77,1.39-2.11,0.45-3.07c-0.81-0.82-2.12-1.08-3.21-0.64c-0.2,0.08-0.43,0.11-0.64,0.17c-0.13,0.03-0.27,0.03-0.38,0.09
			c-1.06,0.55-1.4,1.939-0.68,2.859C22.36,28.87,23.21,29.19,24.14,29.21z M27.24,29.37c-1.99,1.29-3.93,1.28-5.9,0
			c0,1.46,0,2.86,0.01,4.27c0,0.08,0.11,0.17,0.18,0.24c0.26,0.25,0.51,0.49,0.78,0.73c0.11,0.09,0.26,0.22,0.39,0.22
			c1.06,0.02,2.13,0.02,3.2,0c0.13,0,0.27-0.1,0.37-0.19c0.26-0.24,0.52-0.48,0.77-0.73c0.08-0.08,0.2-0.19,0.2-0.28
			C27.25,32.23,27.24,30.82,27.24,29.37z M19,37.07h10.59v-20.2c-0.05-0.01-0.08-0.03-0.1-0.03h-8.12c-0.09,0-0.22,0.04-0.27,0.11
			c-0.24,0.32-0.46,0.66-0.64,0.93l0.82,0.79c0.21-0.65,0.26-0.71,0.75-0.71h4.55c0.39-0.01,0.63,0.16,0.67,0.54
			c0.03,0.33,0.22,0.52,0.57,0.58c0.5,0.09,0.61,0.23,0.61,0.71v14.36c0,0.45-0.14,0.62-0.6,0.689c-0.35,0.05-0.51,0.22-0.58,0.53
			c-0.1,0.48-0.25,0.6-0.77,0.6h-4.32c-0.58,0-0.68-0.11-0.85-0.63c-0.06-0.189-0.25-0.41-0.43-0.46c-0.69-0.2-0.72-0.21-0.72-0.899
			l-0.01-9.8c0-0.14,0.01-0.33-0.08-0.42C19.75,23.42,19.4,23.11,19,22.73V37.07z M14.26,13.45h1.16v0.41c0,2.18,0.01,4.37,0,6.55
			c-0.01,1.23,0.43,2.26,1.36,3.11c0.31,0.28,0.61,0.58,1.01,0.86v-0.34c0-0.69-0.01-1.38,0.01-2.07c0.01-0.29-0.08-0.51-0.31-0.69
			c-0.24-0.19-0.47-0.4-0.73-0.62l0.95-0.83c0.17,0.19,0.37,0.42,0.59,0.64l3.36,3.2c0.33,0.3,0.71,0.44,1.16,0.311
			c0.4-0.11,0.64-0.38,0.73-0.771c0.1-0.39-0.06-0.7-0.35-0.979l-3.78-3.601c-0.59-0.56-0.6-0.72-0.05-1.31
			c0.87-0.94,1.32-2.04,1.36-3.29c0.01-0.18,0-0.35,0-0.56h1.24l-0.25,2.24h0.39h7.84c0.68,0,0.85,0.15,0.85,0.79v25.44
			c0,0.63-0.17,0.79-0.85,0.79H18.62c-0.67,0-0.83-0.15-0.83-0.811c0-5.15,0-10.3,0.01-15.45c0-0.29-0.09-0.49-0.31-0.69
			c-0.61-0.56-1.22-1.14-1.81-1.73c-0.91-0.899-1.41-1.99-1.43-3.22c-0.04-2.4-0.01-4.8-0.01-7.2
			C14.24,13.58,14.25,13.53,14.26,13.45z"/>
		<path fill-rule="evenodd" clip-rule="evenodd" fill="#FFFFFF" d="M42.3,45h-7.92v1.1h0.45h3.4c1.17,0,2.34,0,3.52-0.01
			c0.12,0,0.32-0.06,0.35-0.13C42.19,45.66,42.23,45.33,42.3,45z M34.38,43.8c0.06,0.021,0.08,0.03,0.1,0.03h8.13
			c0.09,0,0.21-0.04,0.26-0.1c0.22-0.311,0.43-0.63,0.66-0.971h-9.15V43.8z M39.93,39.34c-0.87-1.189-0.95-2.09-0.32-2.93
			c0.64-0.85,1.49-1.04,3-0.64v-1.88c-1.97,1.26-3.9,1.28-5.86-0.01c-0.01,0.14-0.02,0.25-0.02,0.36c0,1.24,0.01,2.48-0.01,3.72
			c0,0.24,0.08,0.36,0.3,0.5c0.26,0.17,0.45,0.44,0.68,0.66c0.08,0.08,0.18,0.2,0.28,0.21C38.61,39.35,39.24,39.34,39.93,39.34z
			 M39.68,33.72c0.83-0.02,1.65-0.25,2.31-0.86c0.82-0.76,0.85-1.9,0.08-2.7c-1.21-1.25-3.53-1.26-4.76-0.03
			c-0.77,0.76-0.77,1.87-0.03,2.65C37.91,33.43,38.71,33.7,39.68,33.72z M42.63,29.06c0-1.46,0-2.87-0.01-4.27
			c0-0.09-0.13-0.19-0.22-0.27c-0.23-0.23-0.52-0.43-0.71-0.69c-0.13-0.18-0.24-0.25-0.47-0.25c-1.03,0.01-2.06,0.01-3.08,0
			c-0.23,0-0.34,0.08-0.47,0.26c-0.18,0.25-0.42,0.48-0.69,0.65c-0.19,0.12-0.26,0.24-0.25,0.44c0,1.27,0,2.54,0,3.81
			c0,0.09,0.01,0.19,0.02,0.3C38.71,27.79,40.64,27.76,42.63,29.06z M44.98,21.37H34.39v20.2h7.87l0.07-0.09
			c-0.271-0.24-0.56-0.46-0.8-0.71c-0.22-0.23-0.45-0.31-0.77-0.3c-1.08,0.01-2.16,0.01-3.24,0c-0.57,0-0.68-0.09-0.8-0.62
			c-0.07-0.27-0.22-0.44-0.52-0.5c-0.58-0.11-0.66-0.22-0.66-0.79V24.35c0-0.54,0.1-0.67,0.64-0.77c0.32-0.06,0.48-0.24,0.54-0.52
			c0.1-0.49,0.23-0.6,0.74-0.6c1.48-0.01,2.96-0.01,4.43,0c0.52,0,0.61,0.12,0.77,0.58c0.06,0.2,0.25,0.44,0.44,0.5
			c0.68,0.23,0.72,0.23,0.72,0.91v12.06c0,0.141-0.01,0.311,0.07,0.4c0.31,0.36,0.65,0.7,0.98,1.05l0.11-0.09V21.37z M43.24,47.22
			h-0.89h-8.4c-0.61,0-0.78-0.16-0.78-0.73V20.97c0-0.59,0.18-0.75,0.81-0.75h11.41c0.62,0,0.79,0.16,0.79,0.76
			c0,4.399,0.01,8.8,0,13.2c0,0.29,0.07,0.51,0.3,0.72c0.62,0.55,1.21,1.13,1.79,1.71c0.87,0.85,1.41,1.89,1.44,3.06
			c0.06,2.5,0.02,5,0.02,7.521h-1.18v-0.4c0-2.17-0.01-4.33,0.01-6.49c0.01-1.25-0.44-2.3-1.39-3.16c-0.3-0.28-0.57-0.59-0.85-0.89
			l-0.14,0.06v0.61c0,0.61,0.02,1.21,0,1.811c-0.01,0.279,0.06,0.479,0.29,0.66c0.25,0.19,0.49,0.41,0.72,0.62l-0.89,0.86
			c-0.29-0.3-0.59-0.61-0.9-0.92l-3.09-2.93c-0.32-0.31-0.7-0.45-1.15-0.32c-0.4,0.11-0.65,0.38-0.74,0.76
			c-0.1,0.41,0.07,0.73,0.37,1.021l3.76,3.569c0.6,0.561,0.6,0.72,0.06,1.311c-0.9,0.96-1.34,2.09-1.37,3.36V47.22z"/>
		<rect x="23.72" y="32.06" fill-rule="evenodd" clip-rule="evenodd" fill="#FFFFFF" width="1.13" height="1.07"/>
		<rect x="39.13" y="25.3" fill-rule="evenodd" clip-rule="evenodd" fill="#FFFFFF" width="1.11" height="1.09"/>
	</g>
</g>
</svg>
